[gd_scene load_steps=13 format=2]

[ext_resource path="res://Font/Candal.ttf" type="DynamicFontData" id=1]
[ext_resource path="res://Scripts/Menu/NewGameButton.gd" type="Script" id=2]
[ext_resource path="res://Scripts/Menu/HelpMenuButton.gd" type="Script" id=3]
[ext_resource path="res://Scripts/Menu/SettingsMenuButton.gd" type="Script" id=4]
[ext_resource path="res://Scripts/Menu/AboutButton.gd" type="Script" id=5]
[ext_resource path="res://Scripts/Menu/ExitButton.gd" type="Script" id=6]
[ext_resource path="res://Assets/SFX/finding-home.wav" type="AudioStream" id=7]

[sub_resource type="DynamicFont" id=1]

size = 40
use_mipmaps = false
use_filter = false
font_data = ExtResource( 1 )
_sections_unfolded = [ "Font", "Settings" ]

[sub_resource type="DynamicFont" id=2]

size = 30
use_mipmaps = true
use_filter = false
font_data = ExtResource( 1 )
_sections_unfolded = [ "Font", "Settings" ]

[sub_resource type="DynamicFont" id=3]

size = 20
use_mipmaps = false
use_filter = false
font_data = ExtResource( 1 )
_sections_unfolded = [ "Font", "Settings" ]

[sub_resource type="DynamicFont" id=4]

size = 20
use_mipmaps = false
use_filter = false
font_data = ExtResource( 1 )
_sections_unfolded = [ "Font", "Settings" ]

[sub_resource type="DynamicFont" id=5]

size = 20
use_mipmaps = false
use_filter = false
font_data = ExtResource( 1 )
_sections_unfolded = [ "Font", "Resource", "Settings" ]

[node name="Node" type="Node" index="0"]

[node name="MarginContainer" type="MarginContainer" parent="." index="0"]

anchor_left = 0.0
anchor_top = 0.0
anchor_right = 0.0
anchor_bottom = 0.0
margin_right = 480.0
margin_bottom = 720.0
rect_pivot_offset = Vector2( 0, 0 )
rect_clip_content = false
mouse_filter = 0
mouse_default_cursor_shape = 0
size_flags_horizontal = 1
size_flags_vertical = 1
__meta__ = {
"_edit_lock_": true
}

[node name="CenterContainer" type="CenterContainer" parent="MarginContainer" index="0"]

anchor_left = 0.0
anchor_top = 0.0
anchor_right = 0.0
anchor_bottom = 0.0
margin_left = 8.0
margin_right = 480.0
margin_bottom = 720.0
rect_pivot_offset = Vector2( 0, 0 )
rect_clip_content = false
mouse_filter = 0
mouse_default_cursor_shape = 0
size_flags_horizontal = 1
size_flags_vertical = 1
use_top_left = false
_sections_unfolded = [ "Margin", "Rect" ]
__meta__ = {
"_edit_lock_": true
}

[node name="MainScreen" type="VBoxContainer" parent="MarginContainer/CenterContainer" index="0"]

anchor_left = 0.0
anchor_top = 0.0
anchor_right = 0.0
anchor_bottom = 0.0
margin_left = 131.0
margin_top = 131.0
margin_right = 340.0
margin_bottom = 589.0
rect_pivot_offset = Vector2( 0, 0 )
rect_clip_content = false
mouse_filter = 1
mouse_default_cursor_shape = 0
size_flags_horizontal = 1
size_flags_vertical = 3
custom_constants/separation = 70
alignment = 1
_sections_unfolded = [ "Anchor", "Focus", "Hint", "Margin", "Material", "Mouse", "Rect", "Size Flags", "Theme", "Visibility", "custom_constants" ]

[node name="Title" type="Label" parent="MarginContainer/CenterContainer/MainScreen" index="0"]

anchor_left = 0.0
anchor_top = 0.0
anchor_right = 0.0
anchor_bottom = 0.0
margin_right = 209.0
margin_bottom = 53.0
rect_pivot_offset = Vector2( 0, 0 )
rect_clip_content = false
mouse_filter = 2
mouse_default_cursor_shape = 0
size_flags_horizontal = 1
size_flags_vertical = 4
custom_fonts/font = SubResource( 1 )
text = "TicTacToe"
align = 1
percent_visible = 1.0
lines_skipped = 0
max_lines_visible = -1
_sections_unfolded = [ "Margin", "Size Flags", "custom_fonts" ]

[node name="Label" type="Label" parent="MarginContainer/CenterContainer/MainScreen" index="1"]

anchor_left = 0.0
anchor_top = 0.0
anchor_right = 0.0
anchor_bottom = 0.0
margin_top = 123.0
margin_right = 209.0
margin_bottom = 163.0
rect_pivot_offset = Vector2( 0, 0 )
rect_clip_content = false
mouse_filter = 2
mouse_default_cursor_shape = 0
size_flags_horizontal = 1
size_flags_vertical = 4
custom_fonts/font = SubResource( 2 )
text = "Main Menu"
align = 1
percent_visible = 1.0
lines_skipped = 0
max_lines_visible = -1
_sections_unfolded = [ "Margin", "Size Flags", "custom_fonts" ]

[node name="MainMenu" type="VBoxContainer" parent="MarginContainer/CenterContainer/MainScreen" index="2"]

anchor_left = 0.0
anchor_top = 0.0
anchor_right = 0.0
anchor_bottom = 0.0
margin_top = 233.0
margin_right = 209.0
margin_bottom = 458.0
rect_pivot_offset = Vector2( 0, 0 )
rect_clip_content = false
mouse_filter = 1
mouse_default_cursor_shape = 0
size_flags_horizontal = 1
size_flags_vertical = 3
custom_constants/separation = 15
alignment = 1
_sections_unfolded = [ "Grow Direction", "Size Flags", "custom_constants" ]

[node name="NewGameButton" type="Button" parent="MarginContainer/CenterContainer/MainScreen/MainMenu" index="0"]

anchor_left = 0.0
anchor_top = 0.0
anchor_right = 0.0
anchor_bottom = 0.0
margin_right = 209.0
margin_bottom = 33.0
rect_pivot_offset = Vector2( 0, 0 )
rect_clip_content = false
focus_mode = 2
mouse_filter = 0
mouse_default_cursor_shape = 0
size_flags_horizontal = 1
size_flags_vertical = 1
custom_fonts/font = SubResource( 3 )
toggle_mode = false
enabled_focus_mode = 2
shortcut = null
group = null
text = "New Game"
flat = false
clip_text = true
align = 1
script = ExtResource( 2 )
_sections_unfolded = [ "Focus", "Size Flags", "Theme", "custom_fonts", "custom_styles" ]

[node name="Help" type="Button" parent="MarginContainer/CenterContainer/MainScreen/MainMenu" index="1"]

anchor_left = 0.0
anchor_top = 0.0
anchor_right = 0.0
anchor_bottom = 0.0
margin_top = 48.0
margin_right = 209.0
margin_bottom = 81.0
rect_pivot_offset = Vector2( 0, 0 )
rect_clip_content = false
focus_mode = 2
mouse_filter = 0
mouse_default_cursor_shape = 0
size_flags_horizontal = 1
size_flags_vertical = 1
custom_fonts/font = SubResource( 4 )
toggle_mode = false
enabled_focus_mode = 2
shortcut = null
group = null
text = "Help"
flat = false
align = 1
script = ExtResource( 3 )
_sections_unfolded = [ "Focus", "custom_fonts" ]

[node name="Settings" type="Button" parent="MarginContainer/CenterContainer/MainScreen/MainMenu" index="2"]

anchor_left = 0.0
anchor_top = 0.0
anchor_right = 0.0
anchor_bottom = 0.0
margin_top = 96.0
margin_right = 209.0
margin_bottom = 129.0
rect_pivot_offset = Vector2( 0, 0 )
rect_clip_content = false
focus_mode = 2
mouse_filter = 0
mouse_default_cursor_shape = 0
size_flags_horizontal = 1
size_flags_vertical = 1
custom_fonts/font = SubResource( 4 )
toggle_mode = false
enabled_focus_mode = 2
shortcut = null
group = null
text = "Settings"
flat = false
align = 1
script = ExtResource( 4 )
_sections_unfolded = [ "Focus", "custom_fonts" ]

[node name="AboutButton" type="Button" parent="MarginContainer/CenterContainer/MainScreen/MainMenu" index="3"]

anchor_left = 0.0
anchor_top = 0.0
anchor_right = 0.0
anchor_bottom = 0.0
margin_top = 144.0
margin_right = 209.0
margin_bottom = 177.0
rect_pivot_offset = Vector2( 0, 0 )
rect_clip_content = false
focus_mode = 2
mouse_filter = 0
mouse_default_cursor_shape = 0
size_flags_horizontal = 1
size_flags_vertical = 1
custom_fonts/font = SubResource( 3 )
toggle_mode = false
enabled_focus_mode = 2
shortcut = null
group = null
text = "About"
flat = false
align = 1
script = ExtResource( 5 )
_sections_unfolded = [ "Focus", "custom_fonts" ]

[node name="ExitButton" type="Button" parent="MarginContainer/CenterContainer/MainScreen/MainMenu" index="4"]

anchor_left = 0.0
anchor_top = 0.0
anchor_right = 0.0
anchor_bottom = 0.0
margin_top = 192.0
margin_right = 209.0
margin_bottom = 225.0
rect_pivot_offset = Vector2( 0, 0 )
rect_clip_content = false
focus_mode = 2
mouse_filter = 0
mouse_default_cursor_shape = 0
size_flags_horizontal = 1
size_flags_vertical = 1
custom_fonts/font = SubResource( 5 )
toggle_mode = false
enabled_focus_mode = 2
shortcut = null
group = null
text = "Exit"
flat = false
align = 1
script = ExtResource( 6 )
_sections_unfolded = [ "Focus", "custom_fonts" ]

[node name="PopupMenu" type="PopupMenu" parent="MarginContainer/CenterContainer" index="1"]

visible = false
anchor_left = 0.0
anchor_top = 0.0
anchor_right = 0.0
anchor_bottom = 0.0
margin_left = 179.0
margin_top = 289.0
margin_right = 292.0
margin_bottom = 431.0
rect_pivot_offset = Vector2( 0, 0 )
rect_clip_content = false
focus_mode = 2
mouse_filter = 0
mouse_default_cursor_shape = 0
size_flags_horizontal = 1
size_flags_vertical = 1
popup_exclusive = true
items = [ "One Player", null, 0, false, false, 0, 0, null, "", false, "", null, 0, false, true, 1, 0, null, "", true, "Two Player", null, 0, false, false, 2, 0, null, "", false, "", null, 0, false, true, -1, 0, null, "", true, "Remote Player", null, 0, false, false, 4, 0, null, "", false, "", null, 0, false, true, -1, 0, null, "", true, "Cancel", null, 0, false, false, -1, 0, null, "", false ]
hide_on_state_item_selection = false
_sections_unfolded = [ "Focus", "Hint", "Material", "Mouse", "Pause", "Popup", "Rect", "Size Flags", "Visibility", "custom_colors", "custom_constants", "custom_fonts", "custom_styles" ]

[node name="Dialog" type="AcceptDialog" parent="MarginContainer/CenterContainer" index="2"]

visible = false
anchor_left = 0.0
anchor_top = 0.0
anchor_right = 0.0
anchor_bottom = 0.0
margin_left = 69.0
margin_top = 331.0
margin_right = 403.0
margin_bottom = 389.0
rect_pivot_offset = Vector2( 0, 0 )
rect_clip_content = false
focus_mode = 2
mouse_filter = 0
mouse_default_cursor_shape = 0
size_flags_horizontal = 1
size_flags_vertical = 1
popup_exclusive = true
window_title = "Feature not available"
resizable = false
dialog_text = "We are doing our best to brought this to you soon"
dialog_hide_on_ok = true
_sections_unfolded = [ "Anchor", "Dialog", "Focus", "Grow Direction", "Hint", "Margin", "Material", "Mouse", "Pause", "Popup", "Rect", "Size Flags", "Visibility", "custom_colors", "custom_constants", "custom_fonts", "custom_styles" ]

[node name="AudioStreamPlayer" type="AudioStreamPlayer" parent="." index="1"]

stream = ExtResource( 7 )
volume_db = 0.0
pitch_scale = 1.0
autoplay = true
mix_target = 0
bus = "Music"

[connection signal="pressed" from="MarginContainer/CenterContainer/MainScreen/MainMenu/NewGameButton" to="MarginContainer/CenterContainer/MainScreen/MainMenu/NewGameButton" method="_on_NewGameButton_pressed"]

[connection signal="pressed" from="MarginContainer/CenterContainer/MainScreen/MainMenu/Help" to="MarginContainer/CenterContainer/MainScreen/MainMenu/Help" method="_on_Help_pressed"]

[connection signal="pressed" from="MarginContainer/CenterContainer/MainScreen/MainMenu/AboutButton" to="MarginContainer/CenterContainer/MainScreen/MainMenu/AboutButton" method="_on_AboutButton_pressed"]

[connection signal="pressed" from="MarginContainer/CenterContainer/MainScreen/MainMenu/ExitButton" to="MarginContainer/CenterContainer/MainScreen/MainMenu/ExitButton" method="_on_ExitButton_pressed"]

[connection signal="index_pressed" from="MarginContainer/CenterContainer/PopupMenu" to="MarginContainer/CenterContainer/MainScreen/MainMenu/NewGameButton" method="_on_PopupMenu_index_pressed"]

[connection signal="confirmed" from="MarginContainer/CenterContainer/Dialog" to="MarginContainer/CenterContainer/MainScreen/MainMenu/NewGameButton" method="_on_Dialog_confirmed"]


